Case Study: Glycomics – Glycoverse Tutorials
…
Variable information: a tibble with feature metadata (glycan compositions, glycan structures, etc.)

You can get these data components by using get_expr_mat(), get_sample_info(), and get_var_info().

get_expr_mat(real_experiment2)[1:5, 1:5]
#>                                      S1       S2       S3       S4       S5
#> Man(3)GlcNAc(3)                1354.352 1884.387 1389.444 2034.693 1472.504
#> Man(3)GlcNAc(7)                3315.779 2500.308 1247.036 3102.668 2903.602
#> Man(5)GlcNAc(2)                6940.940 5911.016 1686.319 4071.061 4349.991
#> Man(4)Gal(2)GlcNAc(4)Neu5Ac(2) 4437.816 7535.886 2053.077 4773.249 3142.817
#> Man(3)Gal(1)GlcNAc(3)          1346.274 1663.375 1043.464 1765.550 1184.083

get_sample_info(real_experiment2)
#> # A tibble: 144 × 2
#>    sample group
#>    <chr>  <fct>
#>  1 S1     H    
#>  2 S2     H    
#>  3 S3     Y    
#>  4 S4     C    
#>  5 S5     H    
#>  6 S6     C    
#>  7 S7     M    
#>  8 S8     C    
#>  9 S9     M    
#> 10 S10    M    
#> # ℹ 134 more rows

get_var_info(real_experiment2)
#> # A tibble: 67 × 3
#>    variable                             glycan_composition      glycan_structure
#>    <glue>                               <comp>                  <struct>        
#>  1 Man(3)GlcNAc(3)                      Man(3)GlcNAc(3)         GlcNAc(?1-?)Man…
#>  2 Man(3)GlcNAc(7)                      Man(3)GlcNAc(7)         GlcNAc(?1-?)[Gl…
#>  3 Man(5)GlcNAc(2)                      Man(5)GlcNAc(2)         Man(?1-?)[Man(?…
#>  4 Man(4)Gal(2)GlcNAc(4)Neu5Ac(2)       Man(4)Gal(2)GlcNAc(4)N… Neu5Ac(?2-?)Gal…
#>  5 Man(3)Gal(1)GlcNAc(3)                Man(3)Gal(1)GlcNAc(3)   Gal(?1-?)GlcNAc…
#>  6 Man(3)Gal(2)GlcNAc(4)Fuc(2)          Man(3)Gal(2)GlcNAc(4)F… Gal(?1-?)GlcNAc…
#>  7 Man(3)GlcNAc(3)Fuc(1)                Man(3)GlcNAc(3)Fuc(1)   GlcNAc(?1-?)Man…
#>  8 Man(3)GlcNAc(4)                      Man(3)GlcNAc(4)         GlcNAc(?1-?)Man…
#>  9 Man(3)Gal(2)GlcNAc(5)Neu5Ac(1)       Man(3)Gal(2)GlcNAc(5)N… Neu5Ac(?2-?)Gal…
#> 10 Man(3)Gal(1)GlcNAc(5)Fuc(1)Neu5Ac(1) Man(3)Gal(1)GlcNAc(5)F… Neu5Ac(?2-?)Gal…
#> # ℹ 57 more rows
…
We actually recommend the two-step approach, since it gives you more flexibility with the results. You can create custom ggplot2 visualizations for publications or extract the underlying data when reviewers ask for it.

glystats covers virtually all standard omics analyses. All functions follow the same naming pattern: gly_xxx()—think gly_anova(), gly_ttest(), gly_roc(), gly_cox(), gly_wgcna(), and so on. They all take an experiment() object as their first argument.

The return format is consistent across all functions—a list with two components:

tidy_result: cleaned-up tibbles in tidy format. We’ve done the heavy lifting of organizing messy statistical output for you.

raw_result: the original statistical objects. These are available when you need to dig deeper or perform advanced analyses.

glystats provides two helper functions to get the tidy result tibble and the raw result list from a glystats result object: get_tidy_result() and get_raw_result(). Let’s now see what the samples tibble looks like:

get_tidy_result(pca_res, "samples")  # many tibbles, so we specify one of them
#> # A tibble: 8,208 × 4
#>    sample group    PC  value
#>    <chr>  <fct> <dbl>  <dbl>
#>  1 S1     H         1 -1.12 
#>  2 S1     H         2 -1.55 
#>  3 S1     H         3  0.708
#>  4 S1     H         4  1.83 
#>  5 S1     H         5 -1.00 
#>  6 S1     H         6  2.55 
#>  7 S1     H         7  1.57 
#>  8 S1     H         8  1.32 
#>  9 S1     H         9  1.42 
#> 10 S1     H        10  0.424
#> # ℹ 8,198 more rows
…
anova_res <- gly_anova(clean_exp, contrasts = "H_vs_C")  # from `glystats`
#> ℹ Number of groups: 4
#> ℹ Groups: "H", "M", "Y", and "C"
#> ℹ Pairwise comparisons will be performed, with levels coming first as reference groups.
#> Warning: There were 57 warnings in `dplyr::mutate()`.
#> The first warning was:
#> ℹ In argument: `test_result = list(safe_f(formula, data = .data$data, contrasts
#>   = "H_vs_C"))`.
#> ℹ In row 1.
#> Caused by warning in `model.matrix.default()`:
#> ! non-list contrasts argument ignored
#> ℹ Run `dplyr::last_dplyr_warnings()` to see the 56 remaining warnings.
get_tidy_result(anova_res, "main_test")  # only one tibble here
#> # A tibble: 57 × 12
#>    variable         glycan_composition glycan_structure term     df sumsq meansq
#>    <glue>           <comp>             <struct>         <chr> <dbl> <dbl>  <dbl>
#>  1 Man(3)GlcNAc(3)  Man(3)GlcNAc(3)    GlcNAc(?1-?)Man… group     3 0.579 0.193 
#>  2 Man(3)GlcNAc(7)  Man(3)GlcNAc(7)    GlcNAc(?1-?)[Gl… group     3 1.07  0.355 
#>  3 Man(5)GlcNAc(2)  Man(5)GlcNAc(2)    Man(?1-?)[Man(?… group     3 0.887 0.296 
#>  4 Man(4)Gal(2)Glc… Man(4)Gal(2)GlcNA… Neu5Ac(?2-?)Gal… group     3 0.898 0.299 
#>  5 Man(3)Gal(1)Glc… Man(3)Gal(1)GlcNA… Gal(?1-?)GlcNAc… group     3 0.316 0.105 
#>  6 Man(3)Gal(2)Glc… Man(3)Gal(2)GlcNA… Gal(?1-?)GlcNAc… group     3 1.02  0.341 
#>  7 Man(3)GlcNAc(3)… Man(3)GlcNAc(3)Fu… GlcNAc(?1-?)Man… group     3 0.561 0.187 
#>  8 Man(3)GlcNAc(4)  Man(3)GlcNAc(4)    GlcNAc(?1-?)Man… group     3 1.24  0.415 
#>  9 Man(3)Gal(2)Glc… Man(3)Gal(2)GlcNA… Neu5Ac(?2-?)Gal… group     3 0.195 0.0649
#> 10 Man(3)Gal(1)Glc… Man(3)Gal(1)GlcNA… Neu5Ac(?2-?)Gal… group     3 3.29  1.10  
#> # ℹ 47 more rows
#> # ℹ 5 more variables: statistic <dbl>, p_val <dbl>, p_adj <dbl>,
#> #   effect_size <dbl>, post_hoc <chr>
…
