Case Study: Glycoproteomics – Glycoverse Tutorials
…
get_var_info(real_experiment)
#> # A tibble: 4,262 × 8
#>    variable   peptide peptide_site protein protein_site gene  glycan_composition
#>    <chr>      <chr>          <int> <chr>          <int> <chr> <comp>            
#>  1 P08185-17… NKTQGK             1 P08185           176 SERP… Hex(5)HexNAc(4)Ne…
#>  2 P04196-34… HSHNNN…            5 P04196           344 HRG   Hex(5)HexNAc(4)Ne…
#>  3 P04196-34… HSHNNN…            5 P04196           344 HRG   Hex(5)HexNAc(4)   
#>  4 P04196-34… HSHNNN…            5 P04196           344 HRG   Hex(5)HexNAc(4)Ne…
#>  5 P10909-29… HNSTGC…            2 P10909           291 CLU   Hex(6)HexNAc(5)   
#>  6 P04196-34… HSHNNN…            5 P04196           344 HRG   Hex(5)HexNAc(4)Ne…
#>  7 P04196-34… HSHNNN…            6 P04196           345 HRG   Hex(5)HexNAc(4)   
#>  8 P04196-34… HSHNNN…            5 P04196           344 HRG   Hex(5)HexNAc(4)dH…
#>  9 P04196-34… HSHNNN…            5 P04196           344 HRG   Hex(4)HexNAc(3)   
#> 10 P04196-34… HSHNNN…            5 P04196           344 HRG   Hex(4)HexNAc(4)Ne…
#> # ℹ 4,252 more rows
#> # ℹ 1 more variable: glycan_structure <struct>
…
We actually recommend the two-step approach, since it gives you more flexibility with the results. You can create custom ggplot2 visualizations for publications or extract the underlying data when reviewers ask for it.

glystats covers virtually all standard omics analyses. All functions follow the same naming pattern: gly_xxx()—think gly_anova(), gly_ttest(), gly_roc(), gly_cox(), gly_wgcna(), and so on. They all take an experiment() object as their first argument.

The return format is consistent across all functions—a list with two components:

tidy_result: cleaned-up tibbles in tidy format. We’ve done the heavy lifting of organizing messy statistical output for you.

raw_result: the original statistical objects. These are available when you need to dig deeper or perform advanced analyses.

glystats provides two helper functions to get the tidy result tibble and the raw result list from a glystats result object: get_tidy_result() and get_raw_result(). Let’s now see what the samples tibble looks like:

get_tidy_result(pca_res, "samples")  # many tibbles, so we specify one of them
#> # A tibble: 144 × 4
#>    sample group    PC  value
#>    <chr>  <fct> <dbl>  <dbl>
#>  1 C1     C         1 -21.8 
#>  2 C1     C         2  24.3 
#>  3 C1     C         3   1.75
#>  4 C1     C         4   1.01
#>  5 C1     C         5  11.6 
#>  6 C1     C         6 -25.2 
#>  7 C1     C         7  -4.42
#>  8 C1     C         8   3.35
#>  9 C1     C         9  29.1 
#> 10 C1     C        10  -7.58
#> # ℹ 134 more rows

Notice the “group” column? That’s glystats being helpful— it automatically pulls relevant metadata from your experiment() object and includes it in the results wherever it makes sense.

Back to that autoplot() magic we saw earlier. It automatically recognizes different glystats result types and plots accordingly— no manual specification needed. The plots won’t win any beauty contests, but they’ll get your data insights across fast.

The PCA clearly shows that our samples cluster nicely by condition—always a good sign! Now let’s dive into differential expression analysis using the tried-and-true limma package.

limma_res <- gly_limma(clean_exp, contrasts = "H_vs_C")  # from `glystats`
#> ℹ Number of groups: 4
#> ℹ Groups: "H", "M", "Y", and "C"
#> ℹ Pairwise comparisons will be performed, with levels coming first as reference groups.
get_tidy_result(limma_res)  # only one tibble here
#> # A tibble: 3,979 × 14
#>    variable       protein glycan_composition glycan_structure protein_site gene 
#>    <chr>          <chr>   <comp>             <struct>                <int> <chr>
#>  1 P08185-176-He… P08185  Hex(5)HexNAc(4)Ne… NeuAc(??-?)Hex(…          176 SERP…
#>  2 P04196-344-He… P04196  Hex(5)HexNAc(4)Ne… NeuAc(??-?)Hex(…          344 HRG  
#>  3 P04196-344-He… P04196  Hex(5)HexNAc(4)    Hex(??-?)HexNAc…          344 HRG  
#>  4 P04196-344-He… P04196  Hex(5)HexNAc(4)Ne… NeuAc(??-?)Hex(…          344 HRG  
#>  5 P10909-291-He… P10909  Hex(6)HexNAc(5)    Hex(??-?)HexNAc…          291 CLU  
#>  6 P04196-344-He… P04196  Hex(5)HexNAc(4)Ne… NeuAc(??-?)Hex(…          344 HRG  
#>  7 P04196-345-He… P04196  Hex(5)HexNAc(4)    Hex(??-?)HexNAc…          345 HRG  
#>  8 P04196-344-He… P04196  Hex(5)HexNAc(4)dH… dHex(??-?)Hex(?…          344 HRG  
#>  9 P04196-344-He… P04196  Hex(4)HexNAc(3)    Hex(??-?)HexNAc…          344 HRG  
#> 10 P04196-344-He… P04196  Hex(4)HexNAc(4)Ne… NeuAc(??-?)Hex(…          344 HRG  
#> # ℹ 3,969 more rows
#> # ℹ 8 more variables: log2fc <dbl>, AveExpr <dbl>, t <dbl>, p_val <dbl>,
#> #   p_adj <dbl>, b <dbl>, ref_group <chr>, test_group <chr>
…
This level of structural ambiguity is typical in glycoproteomics. The key is matching your motif definitions to your data’s resolution.

Here’s our research question: How many glycosites show differential Lewis antigen expression across conditions? Without glycoverse, this would be a nightmare to tackle manually. Take a moment to imagine the pain of doing this by hand!

Now, the glycoverse solution:

motif_anova_res <- clean_exp |>
  quantify_motifs(motifs) |>  # quantify these motifs
  gly_anova()  # and perform ANOVA
#> ℹ Number of groups: 4
#> ℹ Groups: "H", "M", "Y", and "C"
#> ℹ Pairwise comparisons will be performed, with levels coming first as reference groups.

get_tidy_result(motif_anova_res, "main_test")
#> # A tibble: 828 × 15
#>    variable         protein protein_site trait gene  motif_structure term     df
#>    <chr>            <chr>          <int> <chr> <chr> <struct>        <chr> <dbl>
#>  1 A6NJW9-49-lewis… A6NJW9            49 lewi… CD8B2 dHex(??-?)Hex(… group     3
#>  2 A6NJW9-49-lewis… A6NJW9            49 lewi… CD8B2 Hex(??-?)[dHex… group     3
#>  3 A6NJW9-49-sia_l… A6NJW9            49 sia_… CD8B2 NeuAc(??-?)Hex… group     3
#>  4 O14786-150-lewi… O14786           150 lewi… NRP1  dHex(??-?)Hex(… group     3
#>  5 O14786-150-lewi… O14786           150 lewi… NRP1  Hex(??-?)[dHex… group     3
#>  6 O14786-150-sia_… O14786           150 sia_… NRP1  NeuAc(??-?)Hex… group     3
#>  7 O43866-226-lewi… O43866           226 lewi… CD5L  dHex(??-?)Hex(… group     3
#>  8 O43866-226-lewi… O43866           226 lewi… CD5L  Hex(??-?)[dHex… group     3
#>  9 O43866-226-sia_… O43866           226 sia_… CD5L  NeuAc(??-?)Hex… group     3
#> 10 O75437-244-lewi… O75437           244 lewi… ZNF2… dHex(??-?)Hex(… group     3
#> # ℹ 818 more rows
#> # ℹ 7 more variables: sumsq <dbl>, meansq <dbl>, statistic <dbl>, p_val <dbl>,
#> #   p_adj <dbl>, effect_size <dbl>, post_hoc <chr>
…
trait_exp <- derive_traits(clean_exp)  # from `glydet`
trait_exp
#> 
#> ── Traitproteomics Experiment ──────────────────────────────────────────────────
#> ℹ Expression matrix: 12 samples, 3864 variables
#> ℹ Sample information fields: group <fct>
#> ℹ Variable information fields: protein <chr>, protein_site <int>, trait <chr>, gene <chr>, explanation <chr>

That’s it! Just like quantify_motifs(), derive_traits() creates a new experiment() object, but now with trait values per glycosite per sample.

The variable information shows what we’re working with:

get_var_info(trait_exp)
#> # A tibble: 3,864 × 6
#>    variable      protein protein_site trait gene  explanation                   
#>    <chr>         <chr>          <int> <chr> <chr> <chr>                         
#>  1 A6NJW9-49-TM  A6NJW9            49 TM    CD8B2 Proportion of high-mannose gl…
#>  2 A6NJW9-49-TH  A6NJW9            49 TH    CD8B2 Proportion of hybrid glycans …
#>  3 A6NJW9-49-TC  A6NJW9            49 TC    CD8B2 Proportion of complex glycans…
#>  4 A6NJW9-49-MM  A6NJW9            49 MM    CD8B2 Abundance-weighted mean of ma…
#>  5 A6NJW9-49-CA2 A6NJW9            49 CA2   CD8B2 Proportion of bi-antennary gl…
#>  6 A6NJW9-49-CA3 A6NJW9            49 CA3   CD8B2 Proportion of tri-antennary g…
#>  7 A6NJW9-49-CA4 A6NJW9            49 CA4   CD8B2 Proportion of tetra-antennary…
#>  8 A6NJW9-49-TF  A6NJW9            49 TF    CD8B2 Proportion of fucosylated gly…
#>  9 A6NJW9-49-TFc A6NJW9            49 TFc   CD8B2 Proportion of core-fucosylate…
#> 10 A6NJW9-49-TFa A6NJW9            49 TFa   CD8B2 Proportion of arm-fucosylated…
#> # ℹ 3,854 more rows
…
